{"data":[{"authorNM":"MOM Recipe","averageRating":0,"commentCount":0,"fileDescription":"","fileName":"","ingredients":"- Bone-in chicken pieces\r\n- 1/2 cup vegetable cooking oil\r\n- 1 cup apple cider vinegar\r\n- 1.5 teaspoons poultry seasoning\r\n- 1 beaten egg\r\n- Salt and pepper to taste","instructions":"1. Beat the egg. Add oil and beat again.\r\n1. Whisk together all the ingredients in a bowl.\r\n1. Add chicken pieces and toss to coat. Refrigerate for at least three hours and up to 24 hours. Let the marinade do its thing for at least three hours.\r\n1. Preheat your air fryer to 360°F (182°C).\r\n1. Place the marinated chicken pieces in the air fryer basket, ensuring they're not touching to allow even cooking.\r\n1. Cook for 15 to 20 minutes, flipping the chicken pieces halfway through. Baste the chicken with the leftover marinade during flipping for added flavor.\r\n1. Check the internal temperature of the chicken. It should reach 160°F (71°C).\r\n1. Let the chicken rest for a few minutes before serving.","isApproved":false,"lastViewDT":"0001-01-01T00:00:00","modifiedDT":"2024-07-23T13:41:23.6653688","modifiedID":0,"ratingCount":0,"servings":4,"recipeCategory":{"id":7,"name":"Main Course","description":"Main Course","order":7,"isActive":true,"recipes":[],"url":"/recipe/category/main-course","domainID":2},"recipeCategoryID":7,"recipeCategoryNM":"","description":"Imagine a weeknight dinner that's not only quick and easy, but also incredibly delicious and healthy. This **Air Fryer Grilled Chicken** recipe is a modern twist on a classic favorite, designed to fit into the busy life of any mom. Using an air fryer makes this dish *extra convenient* without compromising on flavor or juiciness.\r\n\r\nThis recipe was inspired by a traditional grilled chicken that Mom used to make on special weekends. She would marinate the chicken overnight, grill it to perfection, and serve it with a side of fresh vegetables. Over time, she realized that the air fryer could replicate the same smoky, grilled flavors in a fraction of the time. After several tweaks and trials, this air fryer version was born, perfect for busy weeknights when you still want to treat your family to something special.\r\n\r\nNow, you can enjoy the same mouthwatering grilled chicken, but with less mess and more convenience. The apple cider vinegar and poultry seasoning add a tangy kick, while the air fryer ensures a crispy exterior and juicy interior. Serve it with your favorite sides, and you've got a meal that's sure to become a family favorite.","id":88,"name":"Air Fryer Grilled Chicken","viewCount":0,"recipeURL":"/recipe/air-fryer-grilled-chicken","images":[],"recipeCategories":[],"domainID":2,"seO_Keywords":""},{"authorNM":"MOM Recipe","averageRating":0,"commentCount":0,"fileDescription":"","fileName":"","ingredients":"- 2 tbsp olive oil\r\n- 1 large onion, finely chopped\r\n- 4 cloves garlic, minced\r\n- 1 lb ground beef\r\n- 1 lb Italian sausage, casing removed\r\n- 1 cup red wine\r\n- 1 (28 oz) can crushed tomatoes\r\n- 1 (28 oz) can tomato puree\r\n- 2 fresh tomatoes, diced\r\n- 1/4 cup fresh basil, chopped\r\n- 1 tbsp dried oregano\r\n- 1 tsp salt\r\n- 1/2 tsp black pepper\r\n- 1/2 tsp red pepper flakes (optional)\r\n- 1/4 cup grated Parmesan cheese","instructions":"1. Heat the olive oil in a large pot over medium heat. Add the onion and garlic, sautéing until onions are translucent.\r\n1. Add the ground beef and Italian sausage to the pot, breaking it up with a spoon. Cook until browned.\r\n1. Pour in the red wine and let it simmer until reduced by half.\r\n1. Stir in the crushed tomatoes, tomato puree, and fresh tomatoes. Bring to a simmer.\r\n1. Add the basil, oregano, salt, black pepper, and red pepper flakes. Simmer on low heat for at least 2 hours, stirring occasionally.\r\n1. Before serving, stir in the grated Parmesan cheese for added flavor.\r\n1. Serve over your favorite pasta or use as a base in other dishes.","isApproved":false,"lastViewDT":"0001-01-01T00:00:00","modifiedDT":"2024-05-03T18:34:00.9508021","modifiedID":0,"ratingCount":0,"servings":4,"recipeCategory":{"id":10,"name":"Sauce","description":"Sauce","order":10,"isActive":true,"recipes":[],"url":"/recipe/category/sauce","domainID":2},"recipeCategoryID":10,"recipeCategoryNM":"","description":"Savor a classic family favorite with our **Authentic Italian Sunday Gravy**. This rich, hearty sauce combines both fresh and canned Italian tomatoes for a taste that brings the warmth of Italy right to your table. Perfect for Sunday dinners, this sauce is sure to become a beloved tradition in your household!","id":79,"name":"Authentic Italian Sunday Gravy","viewCount":0,"recipeURL":"/recipe/authentic-italian-sunday-gravy","images":[],"recipeCategories":[],"domainID":2,"seO_Keywords":""},{"authorNM":"MOM Recipe","averageRating":0,"commentCount":0,"fileDescription":"","fileName":"","ingredients":"- 1 stick butter\r\n- 1/2 cup brown sugar\r\n- 4 bananas, peeled and halved lengthwise\r\n- 1/4 cup dark rum\r\n- 1/4 cup Triple Sec\r\n- Vanilla ice cream for serving","instructions":"\r\n1. Melt butter in a large skillet over medium-high heat.\r\n1. Add brown sugar to the melted butter and stir to combine.\r\n1. Place the banana halves in the skillet, cut side down, and cook until caramelized.\r\n1. Carefully pour the dark rum and Triple Sec over the bananas.\r\n1. Ignite the rum with a long lighter to flambé the dish. Do this step with caution and ensure safety at all times.\r\n1. Allow the flames to die down naturally, then carefully remove the skillet from heat.\r\n1. Serve the caramelized bananas over scoops of vanilla ice cream.","isApproved":false,"lastViewDT":"0001-01-01T00:00:00","modifiedDT":"2024-05-02T02:15:37.8243326","modifiedID":0,"ratingCount":0,"servings":2,"recipeCategory":{"id":4,"name":"Dessert","description":"Dessert","order":4,"isActive":true,"recipes":[],"url":"/recipe/category/dessert","domainID":2},"recipeCategoryID":4,"recipeCategoryNM":"","description":"Prepare to dazzle your guests with this **easy** and **show-stopping** dessert! Our *Backyard Bananas Foster* is not only **delicious** but comes with a bit of flare, literally! Perfect for evening gatherings, this dish brings the taste of New Orleans right to your backyard. Watch as the bananas caramelize and the flames dance, making your dessert the highlight of the night.","id":76,"name":"Backyard Bananas Foster","viewCount":0,"recipeURL":"/recipe/backyard-bananas-foster","images":[],"recipeCategories":[],"domainID":2,"seO_Keywords":""},{"authorNM":"Sonya Dwyer","averageRating":5,"commentCount":0,"fileDescription":"","fileName":"","ingredients":"- Big bunch of kale (or chard) \r\n - Olive Oil  \r\n  - Salt \r\n - Pepper","instructions":"Wash and shake dry a big bunch of kale or chard. \r\n  Break off and discard the stems. \r\n  Cut across the leaves to make wide shreds. \r\n  Line baking sheet with foil and spray or brush with bit of oil. \r\n  Spread greens evenly on baking sheet, and bake @ 350 for 15-20 minutes, stirring them up once or twice. \r\n \r\n  When the greens bake, they become bright green and quite crisp. \r\n   (Cooked a minute or two less, the kale is chewy-crisp;take your pick and adjust the cooking time to taste.)   \r\n  Once the crunch is out of the oven, you can salt or season it, but is very good plain. \r\n \r\n  The crunch is best the day it is made but will keep a day or two in a tin at room temp. \r\n \r\n  **NOTE**: My 3 year old loves this, and eats them like potato chips! \r\n \r\n \r\n  Recipe courtesy of Mollie Katzen","isApproved":true,"lastViewDT":"2021-02-15T11:15:30.887","modifiedDT":"2024-09-27T22:02:11.4941296","modifiedID":0,"ratingCount":0,"servings":4,"recipeCategory":{"id":1,"name":"Appetizer","description":"Appetizer","order":1,"isActive":true,"recipes":[],"url":"/recipe/category/appetizer","domainID":2},"recipeCategoryID":1,"recipeCategoryNM":"","description":"Transform your snack time with this easy baked kale recipe that turns a big bunch of kale (or chard) into a crunchy, delicious treat. Simply wash and dry your greens, discard the stems, and cut the leaves into wide shreds. Spread them on a foil-lined baking sheet, drizzle with olive oil, and season with salt and pepper. Bake at 350°F for 15-20 minutes, stirring occasionally for even crispiness. Whether you prefer them perfectly crunchy or slightly chewy, these baked greens are sure to satisfy your cravings.\r\n\r\nNot only is this baked kale a nutritious option for adults, but it's also a hit with kids! My 3-year-old enjoys them as a healthy alternative to potato chips, making it a family favorite. Perfect for snacking on their own or as a topping for salads, this quick recipe is not only easy to make but also keeps well for a couple of days in an airtight container. Give this baked kale recipe a try and discover a tasty way to incorporate more greens into your diet!","id":1,"name":"Baked kale or chard","viewCount":0,"recipeURL":"/recipe/baked-kale-or-chard","images":[],"recipeCategories":[],"domainID":2,"seO_Keywords":""},{"authorNM":"Lesley Hazleton","averageRating":4.5,"commentCount":0,"fileDescription":"","fileName":"","ingredients":"1 pound Ziti pasta  \r\n  1 1/2 pounds italian sausage (mild)  \r\n  1 1/2 pound mozzarella  \r\n  1 pound goat cheese (no spicing)  \r\n  1 egg  \r\n  1 Tbsp oregano  \r\n  2 tsp basil  \r\n  1 tsp thyme  \r\n  1 Tbsp garlic salt  \r\n  Grated parmesan or other hard Italian cheese such as Romano or Asiago - need about 1/2 cup  \r\n  2 Tbsp parsley (dried)  \r\n    \r\n  Sauce:  \r\n  1 28 ounce can tomato puree  \r\n  1 15 ounce can crushed tomatoes  \r\n  1 15 ounce can diced tomatoes  \r\n  1 Tbsp oregano leaf  \r\n  1 tsp oregano ground  \r\n  2 tsp basil  \r\n  1 tsp thyme  \r\n  1 tsp white pepper  \r\n  1 Tbsp basalmic vinegar  \r\n  2 tsp garlic salt  \r\n                      \r\n                    ","instructions":"First put the ziti noodles on to boil.  Cook them for 2/3's of the recommended time on the package.    \r\n    \r\n  Next make the sauce by combining all ingredients for the sauce into a sauce pan and simmering for 15 minutes.  \r\n    \r\n  Next begin browning off the Italian sausage.  Remove sausage from casing and break it up.  Brown until cooked through.  \r\n    \r\n  Take the mozzarella cheese and cut into cubes.  Mix in goat cheese.  Wisk egg until well blended and add to the cheese mixture.  Add oregano, basil, thyme and garlic salt.  Mix with spoon until cheese and other ingredients are well blended.  \r\n    \r\n  In a large lasgana pan, make a layer of noodles, add a layer of sausage, add a layer of cheese and then 1/3 of the sauce.  Make a second layer in the same manner.  The third layer should just be noodles and sauce.  Sprinkle parmesian and parsley across the top.  \r\n    \r\n  Bake in over at 350 degrees for 30 to 45 minutes.","isApproved":true,"lastViewDT":"2021-02-15T11:15:38.417","modifiedDT":"2022-11-28T15:44:32.319836","modifiedID":0,"ratingCount":0,"servings":4,"recipeCategory":{"id":7,"name":"Main Course","description":"Main Course","order":7,"isActive":true,"recipes":[],"url":"/recipe/category/main-course","domainID":2},"recipeCategoryID":7,"recipeCategoryNM":"","description":"Baked ziti is a popular casserole with ziti pasta and a Neapolitan-style tomato-based sauce characteristic of Italian American cuisine.","id":2,"name":"Baked Ziti","viewCount":0,"recipeURL":"/recipe/baked-ziti","images":[],"recipeCategories":[],"domainID":2,"seO_Keywords":""},{"authorNM":"Lesley Hazleton","averageRating":0,"commentCount":0,"fileDescription":"","fileName":"","ingredients":"2 lbs ground beef  \r\n  3 green onions chopped  \r\n  1 poblano pepper chopped  \r\n  16 corn tortillas  \r\n  1 large can of enchilada sauce (I like La Victoria red sauce)  \r\n  2 cups shredded cheese (cheddar or Mexican blend)  \r\n  1 small can of sliced black olives","instructions":"Brown ground beef.  When it is almost done add the chopped green onions and poblano pepper and saute for another 3 to 5 minutes.  Heat the enchilada sauce until it is warm.  Remove meat and enchilada sauce from heat.  Get a 9 by 11 casserole dish and put a small amount of sauce in the bottom.  Dip the corn tortilla into the sauce, place in dish, put beef filling into tortilla and roll.  Repeat until the casserole dish is filled (typically 2 rows of 7 to 8 enchiladas).  Cover with the remainder of sauce.  Cover the top with shredded cheese.  Then put sliced olives on top.  Bake for 15 to 30 minutes in oven at 300 degrees (until cheese melts and sauce bubbles).  \r\n    \r\n  Serves 6 to 8.","isApproved":true,"lastViewDT":"2021-02-15T11:15:38.49","modifiedDT":"2024-09-27T22:03:45.7697577","modifiedID":0,"ratingCount":0,"servings":4,"recipeCategory":{"id":7,"name":"Main Course","description":"Main Course","order":7,"isActive":true,"recipes":[],"url":"/recipe/category/main-course","domainID":2},"recipeCategoryID":7,"recipeCategoryNM":"","description":"Dive into the rich, comforting flavors of our Beef Enchiladas, a classic Mexican dish that's perfect for any occasion. This recipe features savory ground beef sautéed with fresh green onions and smoky poblano peppers, all wrapped in soft corn tortillas and drenched in zesty enchilada sauce. Topped with gooey melted cheese and finished with a sprinkle of sliced black olives, these enchiladas are a crowd-pleaser that will have everyone asking for seconds.\r\n\r\nIdeal for family dinners or casual gatherings, this dish is not only delicious but also easy to prepare. With just a few simple ingredients, you can create a hearty meal that serves 6 to 8 people, making it perfect for feeding a hungry crowd. Whether you pair it with rice, beans, or a fresh salad, our Beef Enchiladas are sure to become a staple in your recipe rotation. Enjoy a taste of Mexico right at home!","id":3,"name":"Beef Enchiladas","viewCount":0,"recipeURL":"/recipe/beef-enchiladas","images":[],"recipeCategories":[],"domainID":2,"seO_Keywords":""},{"authorNM":"Berit Hazleton","averageRating":0,"commentCount":0,"fileDescription":"","fileName":"","ingredients":"2 to 3 pounds stew meat trimmed  \r\n  2 packages Pioneer Au Jus  \r\n  1 cup water  \r\n  1 cup Daisy Sour Cream  \r\n  1 Tablespoon summer savory  \r\n  1/2 tsp white pepper  \r\n  1 package Skinner Tricolor Rigatoni Pasta    \r\n  1 teaspoon salt  \r\n  1 Tablespoon California Olive Ranch Extra Virgin Olive Oil  \r\n  1/2 cup Sargento Shredded Parmesan Cheese  \r\n  ","instructions":"Boil 4 quarts of water and add salt and olive oil.  Once water is boiling add pasta, stirring constantly for the first 30 seconds.  Brown stew meat over medium heat in a large, deep fry pan.  Once meat is browned, lower temperature to medium low.  Mix the water and au jus in bowl or mixing container and then pour over meat.  Stir until it thickens.  Next add sour cream, summer savory and white pepper.  Stir until sauce thickens.  Drain pasta when it is done and put in bowl.  Then pour meat and sauce over pasta.  Garnish with shredded parmesan cheese.   \r\n    \r\n  Serves 5 to 6.","isApproved":true,"lastViewDT":"2021-02-15T11:15:38.567","modifiedDT":"2022-11-28T15:45:26.4841607","modifiedID":0,"ratingCount":0,"servings":4,"recipeCategory":{"id":8,"name":"Quick Meals","description":"Quick Meals","order":8,"isActive":true,"recipes":[],"url":"/recipe/category/quick-meals","domainID":2},"recipeCategoryID":8,"recipeCategoryNM":"","description":"My child, Berit, wanted to make up their own recipe.  This recipe utilized a lot of their favorite things, and they were able to make it on their own at 10.  \r\n\r\nI love that the recipe takes only about 30 minutes.  If we don't have plans for dinner, I can stop off at the grocery store and grab the ingredients on the way home and we can get dinner on the table in 30 minutes.\r\n","id":4,"name":"Berit's Stroganoff","viewCount":0,"recipeURL":"/recipe/berit-s-stroganoff","images":[],"recipeCategories":[],"domainID":2,"seO_Keywords":""},{"authorNM":"MOM Recipe","averageRating":0,"commentCount":0,"fileDescription":"","fileName":"","ingredients":"- 4 cups apple cider\r\n- 1 cup bourbon\r\n- 3 cinnamon sticks\r\n- 1/2 cup water\r\n- 1/2 cup sugar\r\n- 1 apple, thinly sliced for garnish\r\n- Cinnamon sticks for garnish","instructions":"1. In a small saucepan, combine 1/2 cup of water and 1/2 cup of sugar. Bring to a boil over medium heat, stirring until the sugar dissolves.\r\n1. Add 3 cinnamon sticks to the saucepan and lower the heat. Simmer for 5 minutes to allow the cinnamon flavor to infuse into the syrup.\r\n1. Remove the cinnamon sticks and let the syrup cool slightly.\r\n1. In a large pot, combine apple cider and bourbon. Heat over medium heat until warm, but do not boil.\r\n1. Stir in the cinnamon simple syrup to the cider mixture.\r\n1. Pour the warm bourbon apple cider into mugs.\r\n1. Garnish each mug with an apple slice and a cinnamon stick.\r\n1. Serve immediately and enjoy the warmth!","isApproved":false,"lastViewDT":"0001-01-01T00:00:00","modifiedDT":"2024-12-02T23:50:56.9099419","modifiedID":0,"ratingCount":0,"servings":4,"recipeCategory":{"id":6,"name":"Drink","description":"Drink","order":6,"isActive":true,"recipes":[],"url":"/recipe/category/drink","domainID":2},"recipeCategoryID":6,"recipeCategoryNM":"","description":"As autumn leaves began to fall, **Mom** felt the need to create a cozy beverage to warm her family on those chilly evenings. Combining the crisp taste of *apple cider* with the comforting notes of **bourbon** and the aromatic sweetness of *cinnamon*, she crafted a perfect drink that captures the essence of fall. Over the years, this recipe has been refined to achieve the perfect balance of flavors, ensuring that every sip offers a delightful blend of warmth and spice.  \r\n\r\nThis **warm bourbon apple cider** has become a family tradition, always served at gatherings during the cooler months. It brings everyone together with its inviting aroma and rich flavor. The addition of a *cinnamon simple syrup* provides a special touch, elevating the drink from a simple cider to an indulgent treat. As the family gathers around the fireplace, this drink serves as a reminder of the warmth and love that binds them.  \r\n\r\nWhether you're hosting a fall get-together or simply relaxing at home, this drink is sure to become a favorite. It's quick and easy to make, yet offers a depth of flavor that will impress guests and family alike. With just a few ingredients and minimal preparation time, you can enjoy this delightful beverage that brings a sense of nostalgia and comfort with every sip.","id":91,"name":"Bourbon Apple Cider","viewCount":0,"recipeURL":"/recipe/bourbon-apple-cider","images":[],"recipeCategories":[],"domainID":2,"seO_Keywords":"\n1. warm bourbon apple cider\n1. cinnamon simple syrup\n1. fall drink recipes\n1. apple cider with bourbon\n1. cozy autumn beverages\n1. easy warm drinks\n1. family-friendly fall drinks"},{"authorNM":"Lesley Hazleton","averageRating":0,"commentCount":0,"fileDescription":"","fileName":"","ingredients":"1 container Hungry Jack hashbrown potatoes rehydrated  \r\n  8 strips apple wood smoked bacon sliced  \r\n  8 eggs  \r\n  6 Tablespoons milk  \r\n  ¼ pound ham cut into small pieces  \r\n  1 cup Tillamook Sharp Cheddar cheese grated  \r\n  2 small Campari tomatoes thinly sliced  \r\n  2 Tablespoons melted butter  \r\n  ½ teaspoon pepper  \r\n  ½ teaspoon salt  \r\n  ","instructions":"Preheat oven to 425 degrees.  Fill the hashbrown carton with boiling water and let stand until all water is absorbed (about 15 minutes).  While waiting for hashbrowns, cook the bacon in a skillet until crisp.  Once the hashbrowns are ready, cover a 12 inch pizza pan or make a 12 inch circle on a pizza stone.   Salt and pepper the hashbrowns and drizzle melted button over them.  Bake in the oven at 425 degrees for 20 minutes.  While the hashbrowns are baking, break the 8 eggs in a mixing bowl and mix with 6 Tablespoons of milk then scramble the eggs.  Once the hashbrowns have cooked for 20 minutes, remove from oven.  Let cool for 5 minutes, then spread scrambled eggs over the top of the hashbrowns.  Then spread bacon, ham, sliced tomatoes and cover with the shredded cheese.  Put back in the over to cook for another 20 minutes at 425 degrees.  Once the dish is done backing, remove from the oven and let stand a couple minutes.  Cut like a pizza and serve hot.  \r\n    \r\n  Serves 4 to 6.  \r\n  ","isApproved":true,"lastViewDT":"2021-02-15T11:15:38.64","modifiedDT":"2022-11-30T07:48:03.215234","modifiedID":0,"ratingCount":0,"servings":4,"recipeCategory":{"id":3,"name":"Breakfast","description":"Breakfast","order":3,"isActive":true,"recipes":[],"url":"/recipe/category/breakfast","domainID":2},"recipeCategoryID":3,"recipeCategoryNM":"","description":"Cold pizza makes for a mighty fine breakfast today, however, there are alternatives.  ","id":5,"name":"Breakfast Pizza","viewCount":0,"recipeURL":"/recipe/breakfast-pizza","images":[],"recipeCategories":[],"domainID":2,"seO_Keywords":""},{"authorNM":"MOM Recipe","averageRating":5,"commentCount":0,"fileDescription":"","fileName":"","ingredients":"- 2 oz spiced rum\r\n- 4 oz ginger beer\r\n- 1 oz fresh lime juice\r\n- Ice cubes\r\n- Lime wedge or wheel for garnish\r\n","instructions":"- Gather yer spiced rum, ginger beer, and fresh lime juice.\r\n- Fill a tankard or highball glass with ice, then pour in the spiced rum.\r\n- Top it off with ginger beer, always a strong and zesty crewman.\r\n- Add in the fresh lime juice, givin' it a squeeze to keep the scurvy miles away.\r\n- Place a lime wedge or wheel atop for a bit o' decoration that'd even impress a parrot.\r\n","isApproved":true,"lastViewDT":"2025-01-04T21:11:56.2505501","modifiedDT":"2025-01-05T16:08:58.1788511","modifiedID":0,"ratingCount":0,"servings":1,"recipeCategory":{"id":6,"name":"Drink","description":"Drink","order":6,"isActive":true,"recipes":[],"url":"/recipe/category/drink","domainID":2},"recipeCategoryID":6,"recipeCategoryNM":"","description":"**The Legend o' Buccaneer's Brew**  \r\nOnce upon the restless tides of legend, there sailed a fearsome pirate known as Mad Captain Flint, whose crew was famed for drinkin' deep and sailin' true. Yet tis not the sea that threatened them, but the dreaded scourge of scurvy.  \r\n\r\n**A Dreadful Dilemma**: As the sun beat down, and salt rations dwindled, the crew's gums ached, and their limbs grew weary. Captain Flint knew he needed to conjure a remedy before their misfortune matched Davy Jones' depths.  \r\n\r\n**A Fiery Inspiration**: One evening, as the sea glimmered under the twilight, Flint's quartermaster discovered a cask o' spices and a crate o' ginger root from a recent foray in the Caribbean. An idea sparked in Flint's cunning mind.  \r\n\r\n**The Alchemist's Touch**: Flint ordered his crew to prepare a brew, combin' the smokey allure of spiced rum with the fiery kick o' ginger beer. But 'twas the squeeze of a citrus fruit—the pirate's gold of the seas—that completed the concoction. This fresh citrus was known far and wide to stave off scurvy’s grasp.  \r\n\r\n**A Lifesaver Among Sails**: With mugs in hand, the crew drank heartily, feelin' the cure course through their veins like a rushin' torrent. The Buccaneer's Brew became their staple, its boldness keeping them hale, hearty, and ready for any skirmish.  \r\n\r\n**Immortalized in Legend**: From that day on, the recipe traveled from tavern to tavern, a quenching elixir for seafarers and landlubbers alike.  \r\n\r\nSo next time ye sip a Buccaneer's Brew, remember it's not just refreshment—it be a taste of survival and victory upon the high seas.","id":105,"name":"Buccaneer's Brew","viewCount":0,"recipeURL":"/recipe/buccaneer-s-brew","images":[],"recipeCategories":[],"domainID":2,"seO_Keywords":"- Buccaneer's Brew\n- pirate cocktail recipe\n- spiced rum drink\n- ginger beer cocktail\n- lime cocktail\n- easy pirate drink\n- scurvy prevention drink\n"}],"success":true,"message":"Retrieved 10 recipes","pagination":{"currentPage":1,"pageSize":10,"totalCount":110,"totalPages":11,"hasPrevious":false,"hasNext":true}}